650 512 350 512 205
650 400 240 512 205
650 400 240 512 350
650 512 350 512 350
350 512 350 512 350
350 400 240 512 350
350 400 240 512 205
350 512 350 512 205
450 512 350 512 205
450 400 240 512 205
450 400 240 512 350
450 512 350 512 350
650 512 350 512 350
650 400 240 512 350
650 400 240 512 205
650 512 350 512 205
550 512 350 512 205
550 400 240 512 205
550 400 240 512 350
550 512 350 512 350
450 512 350 512 350
450 400 240 512 350
450 400 240 512 205
450 512 350 512 205
350 512 350 512 205
350 400 240 512 205
350 400 240 512 350
350 512 350 512 350
550 512 350 512 350
550 400 240 512 350
550 400 240 512 205
550 512 350 512 205
